<svg width="22" height="22" viewBox="0 0 22 23" fill="none" xmlns="http://www.w3.org/2000/svg">
<rect y="1" width="22" height="22" rx="11" fill="white" fill-opacity="0.7"/>
<path d="M15.96 5.26L15.12 6.62C14.36 6.00667 13.5267 5.7 12.62 5.7C11.86 5.7 11.2 5.90667 10.64 6.32C10.08 6.73333 9.8 7.29333 9.8 8C9.8 8.42667 9.93333 8.81333 10.2 9.16C10.4667 9.50667 10.7933 9.79333 11.18 10.02C11.58 10.2467 12.0133 10.5067 12.48 10.8C12.9467 11.08 13.3733 11.3733 13.76 11.68C14.16 11.9733 14.4933 12.3733 14.76 12.88C15.0267 13.3733 15.16 13.94 15.16 14.58C15.16 15.9533 14.6733 17.0667 13.7 17.92C12.7267 18.7733 11.54 19.2 10.14 19.2C8.83333 19.2 7.53333 18.84 6.24 18.12L7.08 16.62C7.70667 17.0733 8.22667 17.3867 8.64 17.56C9.05333 17.7333 9.58 17.82 10.22 17.82C11.02 17.82 11.7267 17.52 12.34 16.92C12.9667 16.32 13.28 15.6267 13.28 14.84C13.28 14.28 13.0933 13.7933 12.72 13.38C12.36 12.9667 11.92 12.62 11.4 12.34C10.88 12.0467 10.36 11.7467 9.84 11.44C9.32 11.12 8.87333 10.7 8.5 10.18C8.14 9.64667 7.96 9.02 7.96 8.3C7.96 7.04667 8.42667 6.07333 9.36 5.38C10.2933 4.67333 11.4267 4.32 12.76 4.32C13.96 4.32 15.0267 4.63333 15.96 5.26Z" fill="#FF0000"/>
</svg>
