<svg width="43" height="43" viewBox="0 0 43 43" fill="none" xmlns="http://www.w3.org/2000/svg">
<path d="M24.8583 18.0792C23.8146 17.4973 22.6367 17.1769 21.4821 17.0839V16.1297C21.4821 15.6356 21.081 15.2346 20.587 15.2346C20.0929 15.2346 19.6919 15.6356 19.6919 16.1297V17.143C19.6256 17.1537 19.5558 17.1501 19.4914 17.1626C17.5491 17.5637 15.4993 19.1748 15.3418 21.4788C15.1306 24.5668 17.5097 25.7501 19.6919 26.6059V33.072C18.77 32.9663 17.8749 32.6871 17.1875 32.304C16.6755 32.0212 16.2369 31.6757 15.8842 31.2836C15.5531 30.9148 14.9891 30.8844 14.6204 31.212C14.2516 31.5431 14.2193 32.1071 14.5487 32.4759C15.0357 33.0218 15.63 33.4891 16.3174 33.8687C17.3361 34.4379 18.5122 34.7834 19.6919 34.8927V35.8218C19.6919 36.3159 20.093 36.7169 20.587 36.7169C21.0811 36.7169 21.4821 36.3159 21.4821 35.8218V34.8372C23.1112 34.6044 24.5934 33.84 25.4707 32.3434C26.4033 30.7466 26.133 28.7702 24.7832 27.3041C23.949 26.4001 22.7245 25.8648 21.4821 25.3832V18.8723C22.3361 18.96 23.2025 19.2088 23.9848 19.6439C24.5021 19.9339 24.9408 20.2776 25.2898 20.6661C25.6192 21.0366 26.1831 21.0688 26.5519 20.7395C26.9224 20.4101 26.9547 19.8462 26.6253 19.4774C26.1455 18.9349 25.5493 18.4658 24.8583 18.0792ZM19.6919 24.667C18.0019 23.942 17.0174 23.1973 17.1265 21.6022C17.2161 20.2632 18.4871 19.2696 19.6919 18.9599V24.667ZM23.4638 28.5159C24.1046 29.2123 24.5629 30.3437 23.9238 31.4392C23.3904 32.354 22.4881 32.8284 21.4821 33.0164V27.3129C22.293 27.6531 23.0091 28.0218 23.4638 28.5159Z" fill="white" fill-opacity="0.7"/>
<path d="M42.5221 18.9184L35.8036 13.0753V7.1785C35.8036 6.68442 35.4025 6.28339 34.9085 6.28339H29.5379C29.1441 6.28339 28.8111 6.53761 28.6893 6.89026L22.0693 1.13305C21.7327 0.839439 21.2297 0.839439 20.8949 1.13305L0.307901 19.0348C0.0268057 19.2801 -0.0733876 19.6721 0.0555284 20.023C0.186208 20.3721 0.52097 20.6048 0.89512 20.6048H3.58035V41.1918C3.58035 41.6859 3.98138 42.0869 4.47546 42.0869H38.4888C38.9829 42.0869 39.3839 41.6859 39.3839 41.1918V20.6047H42.0691C42.0835 20.6065 42.0978 20.6047 42.1049 20.6047C42.599 20.6047 43 20.2037 43 19.7096C43 19.3677 42.8067 19.0688 42.5221 18.9184ZM38.4888 18.8146C37.9947 18.8146 37.5937 19.2156 37.5937 19.7097V40.2967H5.37056V19.7097C5.37056 19.2156 4.96954 18.8146 4.47546 18.8146H3.28859L21.4821 2.99305L28.9508 9.48781C29.2139 9.71877 29.5899 9.77244 29.9085 9.62748C30.2289 9.48244 30.433 9.1638 30.433 8.81292V8.0736H34.0134V13.4817C34.0134 13.7413 34.1261 13.9865 34.3212 14.1566L39.6757 18.8146H38.4888Z" fill="white" fill-opacity="0.7"/>
</svg>
